<?xml version="1.0" standalone="no"?>
<!DOCTYPE svg PUBLIC "-//W3C//DTD SVG 1.1//EN" "http://www.w3.org/Graphics/SVG/1.1/DTD/svg11.dtd" >
<svg xmlns="http://www.w3.org/2000/svg">
<metadata>Generated by IcoMoon</metadata>
<defs>
<font id="icomoon" horiz-adv-x="1024">
<font-face units-per-em="1024" ascent="960" descent="-64" />
<missing-glyph horiz-adv-x="1024" />
<glyph unicode="&#x20;" horiz-adv-x="512" d="" />
<glyph unicode="&#xe900;" glyph-name="calendar" d="M315.179 790.016c-16.555 0-30.293-13.739-30.293-30.251v-30.251h-90.88c-7.893 0-15.957-2.901-21.632-8.661-5.675-5.717-8.619-13.739-8.619-21.632v-605.653c0-7.936 2.901-15.915 8.619-21.675 5.675-5.675 13.739-8.576 21.632-8.576h635.989c7.851 0 15.915 2.901 21.675 8.576 5.675 5.76 8.576 13.739 8.576 21.675v605.653c0 7.893-2.901 15.915-8.576 21.589-5.76 5.76-13.824 8.661-21.675 8.661h-90.923v30.293c0 16.555-13.739 30.251-30.251 30.251h-30.251c-16.597 0-30.336-13.739-30.336-30.251v-30.251h-272.512v30.251c0 16.555-13.696 30.251-30.293 30.251h-30.251zM315.179 759.766h30.251v-90.837h-30.251v90.837zM678.571 759.766h30.251v-90.837h-30.251v90.837zM194.005 699.222h90.88v-30.336c0-16.555 13.739-30.251 30.293-30.251h30.251c16.597 0 30.293 13.739 30.293 30.251v30.336h272.512v-30.336c0-16.555 13.739-30.251 30.336-30.251h30.251c16.512 0 30.251 13.739 30.251 30.251v30.336h90.923v-106.027h-635.989v106.027zM194.005 562.902h635.989v-469.333h-635.989v469.333zM284.885 502.358v-348.203h454.187v348.203h-454.187zM315.179 472.064h75.691v-75.648h-75.691v75.648zM421.163 472.064h75.691v-75.648h-75.691v75.648zM527.147 472.064h75.691v-75.648h-75.691v75.648zM633.088 472.064h75.733v-75.648h-75.733v75.648zM315.179 366.166h75.691v-75.733h-75.691v75.733zM421.163 366.166h75.691v-75.733h-75.691v75.733zM527.147 366.166h75.691v-75.733h-75.691v75.733zM633.088 366.166h75.733v-75.733h-75.733v75.733zM315.179 260.096h75.691v-75.648h-75.691v75.648zM421.163 260.096h75.691v-75.648h-75.691v75.648zM527.147 260.096h75.691v-75.648h-75.691v75.648zM633.088 260.096h75.733v-75.648h-75.733v75.648z" />
<glyph unicode="&#xe901;" glyph-name="check" d="M832.768 652.288c-0.725-10.069-4.523-19.413-10.624-27.051-5.504-4.309-11.008-8.789-16.171-13.483-0.128 0-0.427 0-0.427-0.128-129.408-110.549-227.669-252.715-280.363-414.72-0.085 0.171-0.085 0.341-0.341 0.597-11.52-31.829-45.099-53.845-83.157-51.157-32.427 2.261-59.52 21.675-70.912 47.829-1.408 4.352-2.816 8.32-4.224 12.672-0.128 0.171-0.469 0.171-0.469 0.341-35.925 102.912-90.581 198.869-160.512 283.776-1.493 1.365-2.731 2.987-3.883 4.608-7.552 9.728-11.392 21.632-10.453 34.133 2.133 29.269 29.355 51.285 61.227 49.109 12.075-0.939 22.656-4.907 31.488-11.264 0.171-0.171 0.171-0.171 0.427-0.171 3.328-3.157 6.912-6.485 10.325-9.899 0.085-0.341 0.512-0.853 0.896-1.067 55.979-54.827 110.976-134.101 151.509-200.192 71.979 126.677 168.192 253.568 291.883 336.469 4.565 3.2 9.259 6.4 13.909 9.344 8.448 3.797 18.091 5.803 28.416 5.077 30.379-2.133 53.376-26.837 51.456-54.827z" />
<glyph unicode="&#xe902;" glyph-name="square" d="M1024-85.333h-1024v1024h1024v-1024zM42.667-42.666h938.667v938.667h-938.667v-938.667z" />
</font></defs></svg>